BEGIN:VCALENDAR
METHOD:REQUEST
PRODID:-//ADE/version 6.0
VERSION:2.0
CALSCALE:GREGORIAN
BEGIN:VEVENT
DTSTAMP:20181119T122618Z
DTSTART:20181024T140000Z
DTEND:20181024T160000Z
SUMMARY:M1201 MathsDiscretes G5 4h
LOCATION:S11
DESCRIPTION:\nG5S1\nLEROUX STEPHANE\n(Exporté le:19/11/2018 13:26)
UID:ADE6050726f6a65745f323031382d323031392d33303037332d312d31
CREATED:19700101T000000Z
LAST-MODIFIED:20181119T122618Z
SEQUENCE:1832348378
END:VEVENT
BEGIN:VEVENT
DTSTAMP:20181119T122618Z
DTSTART:20181127T150000Z
DTEND:20181127T170000Z
SUMMARY:M1104-2 SQL G5
LOCATION:S16
DESCRIPTION:\nG5S1\nGUIDARA IKBEL\n(Exporté le:19/11/2018 13:26)
UID:ADE6050726f6a65745f323031382d323031392d31373330302d312d33
CREATED:19700101T000000Z
LAST-MODIFIED:20181119T122618Z
SEQUENCE:1832348378
END:VEVENT
BEGIN:VEVENT
DTSTAMP:20181119T122618Z
DTSTART:20181010T140000Z
DTEND:20181010T160000Z
SUMMARY:M1201 MathsDiscretes G5 6h
LOCATION:S11
DESCRIPTION:\nG5S1\nLEROUX STEPHANE\n(Exporté le:19/11/2018 13:26)
UID:ADE6050726f6a65745f323031382d323031392d31373238382d322d30
CREATED:19700101T000000Z
LAST-MODIFIED:20181119T122618Z
SEQUENCE:1832348378
END:VEVENT
BEGIN:VEVENT
DTSTAMP:20181119T122618Z
DTSTART:20181022T080000Z
DTEND:20181022T100000Z
SUMMARY:M1206 Angl1 G5
LOCATION:026-Langues\,028
DESCRIPTION:\nG5S1\nCORRIGAN ANNE\nABAUZIT DUFAUD GISELE\n(Exporté le:19/
 11/2018 13:26)
UID:ADE6050726f6a65745f323031382d323031392d31373236342d302d36
CREATED:19700101T000000Z
LAST-MODIFIED:20181119T122618Z
SEQUENCE:1832348378
END:VEVENT
BEGIN:VEVENT
DTSTAMP:20181119T122618Z
DTSTART:20181114T150000Z
DTEND:20181114T170000Z
SUMMARY:M1202 Algèbre Linéaire G5
LOCATION:S10
DESCRIPTION:\nG5S1\nLEROUX STEPHANE\n(Exporté le:19/11/2018 13:26)
UID:ADE6050726f6a65745f323031382d323031392d31373239322d312d30
CREATED:19700101T000000Z
LAST-MODIFIED:20181119T122618Z
SEQUENCE:1832348378
END:VEVENT
BEGIN:VEVENT
DTSTAMP:20181119T122618Z
DTSTART:20181126T090000Z
DTEND:20181126T110000Z
SUMMARY:M1206 Angl1 G5
LOCATION:026-Langues\,028
DESCRIPTION:\nG5S1\nCORRIGAN ANNE\nABAUZIT DUFAUD GISELE\n(Exporté le:19/
 11/2018 13:26)
UID:ADE6050726f6a65745f323031382d323031392d31373236342d302d3130
CREATED:19700101T000000Z
LAST-MODIFIED:20181119T122618Z
SEQUENCE:1832348378
END:VEVENT
BEGIN:VEVENT
DTSTAMP:20181119T122618Z
DTSTART:20181023T140000Z
DTEND:20181023T160000Z
SUMMARY:M1104-2 SQL G5
LOCATION:S16
DESCRIPTION:\nG5S1\nGUIDARA IKBEL\n(Exporté le:19/11/2018 13:26)
UID:ADE6050726f6a65745f323031382d323031392d31373330302d312d32
CREATED:19700101T000000Z
LAST-MODIFIED:20181119T122618Z
SEQUENCE:1832348378
END:VEVENT
END:VCALENDAR
